<?xml version="1.0" encoding="utf-8"?>
<!-- Generator: Adobe Illustrator 24.2.3, SVG Export Plug-In . SVG Version: 6.00 Build 0)  -->
<svg version="1.1" xmlns="http://www.w3.org/2000/svg" xmlns:xlink="http://www.w3.org/1999/xlink" x="0px" y="0px"
	 viewBox="0 0 512 512" style="enable-background:new 0 0 512 512;" xml:space="preserve">
<style type="text/css">
	.st0{display:none;}
	.st1{display:inline;fill:#AA493F;}
	.st2{display:inline;fill:#993B36;}
	.st3{display:inline;}
	.st4{fill:#FEC13B;}
	.st5{display:inline;fill:#F9A332;}
	.st6{display:inline;fill:#B9E1FB;}
	.st7{display:inline;fill:#9AD3F6;}
	.st8{display:inline;fill:#78CBF4;}
	.st9{display:inline;fill:#B7594A;}
	.st10{display:inline;fill:#CCD7F2;}
	.st11{display:inline;fill:#BCCCED;}
	.st12{display:inline;fill:#DDE4F7;}
	.st13{display:inline;fill:#63A1FC;}
	.st14{display:inline;fill:#4188FF;}
	.st15{display:inline;fill:#FF5155;}
	.st16{display:inline;fill:#F24049;}
	.st17{display:inline;fill:#FFCDBE;}
	.st18{display:inline;fill:#F7C1B3;}
	.st19{fill:url(#SVGID_1_);}
	.st20{fill:url(#SVGID_2_);}
	.st21{fill:url(#SVGID_3_);}
	.st22{fill:url(#SVGID_4_);}
	.st23{fill:url(#SVGID_5_);}
	.st24{fill:url(#SVGID_6_);}
	.st25{fill:url(#SVGID_7_);}
	.st26{fill:url(#SVGID_8_);}
	.st27{fill:url(#SVGID_9_);}
	.st28{fill:url(#SVGID_10_);}
	.st29{fill:url(#SVGID_11_);}
	.st30{fill:url(#SVGID_12_);}
	.st31{fill:url(#SVGID_13_);}
</style>
<g id="Capa_1" class="st0">
	<path class="st1" d="M69.8,385.7v107.6c0,3.8,3,6.8,6.8,6.8h14.2c3.8,0,6.8-3,6.8-6.8V385.7H69.8z"/>
	<path class="st1" d="M415,385.7v107.6c0,3.8,3,6.8,6.8,6.8h14.2c3.8,0,6.8-3,6.8-6.8V385.7H415z"/>
	<path class="st2" d="M88.6,493.4V385.7H69.8v107.6c0,3.8,3,6.8,6.8,6.8h14.2c0.8,0,1.6-0.2,2.3-0.4
		C90.4,498.8,88.6,496.3,88.6,493.4z"/>
	<path class="st2" d="M433.8,493.4V385.7H415v107.6c0,3.8,3,6.8,6.8,6.8h14.2c0.8,0,1.6-0.2,2.3-0.4
		C435.7,498.8,433.8,496.3,433.8,493.4z"/>
	<g class="st3">
		<path class="st4" d="M275.8,48.3c-5.4,12.4-2,26.8,8.8,34.4c10.8,7.6,25.6,5.8,35.4-3.5L275.8,48.3z"/>
		<path class="st4" d="M333.2,88.5c-5.4,12.4-2,26.8,8.8,34.4s25.6,5.8,35.4-3.5L333.2,88.5z"/>
		<path class="st4" d="M390.6,128.7c-5.4,12.4-2,26.8,8.8,34.4c10.9,7.6,25.6,5.8,35.4-3.5L390.6,128.7z"/>
	</g>
	<path class="st5" d="M306,82.8c-7.1-5-11-12.9-11.3-21.2l-18.8-13.2c-5.4,12.4-2,26.8,8.8,34.4c7.8,5.4,17.5,6,26,2.6
		C309,84.6,307.5,83.8,306,82.8z"/>
	<path class="st5" d="M363.3,122.9c-7.1-5-11-12.9-11.3-21.2l-18.8-13.2c-5.4,12.4-2,26.8,8.8,34.4c7.8,5.4,17.5,6,26,2.6
		C366.4,124.8,364.8,124,363.3,122.9z"/>
	<path class="st5" d="M420.7,163.1c-7.1-5-11-12.9-11.3-21.2l-18.8-13.2c-5.4,12.4-2,26.8,8.8,34.4c7.8,5.4,17.5,6.1,26,2.6
		C423.8,165,422.2,164.1,420.7,163.1z"/>
	<path class="st6" d="M491.1,322H21.4c-7.5,0-13.7,6.2-13.7,13.7v13.7c0,7.5,6.2,13.7,13.7,13.7h469.6c7.5,0,13.7-6.2,13.7-13.7
		v-13.7C504.7,328.1,498.6,322,491.1,322z"/>
	<path class="st7" d="M42.7,349.3v-13.7c0-7.5,6.2-13.7,13.7-13.7h-35c-7.5,0-13.7,6.2-13.7,13.7v13.7c0,7.5,6.2,13.7,13.7,13.7h35
		C48.9,363,42.7,356.8,42.7,349.3z"/>
	<path class="st7" d="M146.8,308.3v-13.7c0-7.5-6.2-13.7-13.7-13.7H21.4c-7.5,0-13.7,6.2-13.7,13.7v13.7c0,7.5,6.2,13.7,13.7,13.7
		h111.7C140.7,322,146.8,315.8,146.8,308.3z"/>
	<path class="st8" d="M42.7,308.3v-13.7c0-7.5,6.2-13.7,13.7-13.7h-35c-7.5,0-13.7,6.2-13.7,13.7v13.7c0,7.5,6.2,13.7,13.7,13.7h35
		C48.9,322,42.7,315.8,42.7,308.3z"/>
	<path class="st9" d="M27.9,363v14.1c0,7.5,6.2,13.7,13.7,13.7h429.4c7.5,0,13.7-6.2,13.7-13.7V363H27.9z"/>
	<path class="st1" d="M62.9,377.1V363h-35v14.1c0,7.5,6.2,13.7,13.7,13.7h35C69,390.7,62.9,384.6,62.9,377.1z"/>
	<path class="st10" d="M454.9,131.9c-0.7-20.5-10.1-39.9-27.2-51.9l-75.3-52.7c-17.1-12-38.5-14.1-58-7.8L454.9,131.9z"/>
	<path class="st11" d="M336.2,28.3c-3.4-2.4-3.6-6.8-1.4-9.5c-13.1-4-27.2-3.6-40.4,0.7l160.5,112.4c-0.3-8.4-2.1-16.5-5.2-24.1
		L336.2,28.3z"/>
	<path class="st12" d="M207.1,207.2H29.8c-12.2,0-22.1-9.9-22.1-22.1V67.8c0-12.2,9.9-22.1,22.1-22.1h177.3
		c12.2,0,22.1,9.9,22.1,22.1v117.3C229.2,197.3,219.3,207.2,207.1,207.2z"/>
	<path class="st10" d="M42.7,185.1V67.8c0-12.2,9.9-22.1,22.1-22.1h-35c-12.2,0-22.1,9.9-22.1,22.1v117.3c0,12.2,9.9,22.1,22.1,22.1
		h35C52.7,207.2,42.7,197.3,42.7,185.1z"/>
	<path class="st13" d="M199,73H37.9c-1.6,0-2.9,1.3-2.9,2.9V177c0,1.6,1.3,2.9,2.9,2.9H199c1.6,0,2.9-1.3,2.9-2.9V75.9
		C201.9,74.3,200.6,73,199,73z"/>
	<path class="st14" d="M70,177V75.9c0-1.6,1.3-2.9,2.9-2.9h-35c-1.6,0-2.9,1.3-2.9,2.9V177c0,1.6,1.3,2.9,2.9,2.9h35
		C71.3,179.9,70,178.6,70,177z"/>
	<path class="st15" d="M90.1,110.1c-1.1,1.3-2.6,1.1-3.4,0c-6.8-11.9-25.1-7.1-25.1,6.6c0,18.7,19.6,29.8,25.7,32.7
		c0.7,0.4,1.6,0.4,2.3,0c6-3,25.7-14.1,25.7-32.7C115.2,103,96.9,98.1,90.1,110.1z"/>
	<path class="st16" d="M89.2,111.5c0-0.3,0-0.5,0-0.8c-0.9,0.4-1.9,0.1-2.6-0.7c-6.8-11.9-25.1-7.1-25.1,6.6
		c0,18.7,19.6,29.8,25.7,32.7c0.7,0.4,1.6,0.4,2.3,0c3.1-1.5,9.8-5.2,15.6-11C97.7,132.8,89.2,123.8,89.2,111.5z"/>
	<path class="st12" d="M459.6,161.9l6-8.5c4.3-6.2,2.8-14.7-3.4-19.1l-172-120.4c-6.2-4.3-14.7-2.8-19.1,3.4l-6,8.5
		c-4.3,6.2-2.8,14.7,3.4,19.1l172,120.4C446.7,169.6,455.3,168.1,459.6,161.9z"/>
	<path class="st10" d="M302.5,44.9c-6.2-4.3-7.7-12.9-3.4-19.1l2.6-3.8l-11.6-8.1c-6.2-4.3-14.7-2.8-19.1,3.4l-6,8.5
		c-4.3,6.2-2.8,14.7,3.4,19.1l172,120.4c6.2,4.3,14.7,2.8,19.1-3.4l3.3-4.8L302.5,44.9z"/>
	<path class="st17" d="M115.3,240.3c0,24.1-19.6,43.7-43.7,43.7s-43.7-19.6-43.7-43.7s19.6-43.7,43.7-43.7S115.3,216.2,115.3,240.3z
		"/>
	<path class="st18" d="M61.5,240.3c0-18.2,11.1-33.8,26.9-40.3c-5.2-2.2-10.8-3.4-16.8-3.4c-24.1,0-43.7,19.6-43.7,43.7
		S47.4,284,71.6,284c6,0,11.6-1.2,16.8-3.4C72.6,274.1,61.5,258.5,61.5,240.3z"/>
	<path class="st17" d="M168,277.3c0-0.3,0-0.6,0.1-0.9l-29.7-6.5c-9-2.2-18.1,3.3-20.3,12.3c-2.2,9,3.3,18.1,12.3,20.3L168,311
		C168,291.8,168,278.4,168,277.3z"/>
	<path class="st18" d="M148.5,285.9c1.2-5,4.1-9.1,7.9-12l-18-3.9c-9-2.2-18.1,3.3-20.3,12.3c-2.2,9,3.3,18.1,12.3,20.3l26.3,5.9
		C149.9,303.5,146.3,294.7,148.5,285.9z"/>
	<path class="st17" d="M436.3,288.4h-52.7V322h52.7c9.3,0,16.8-7.5,16.8-16.8C453.1,295.9,445.6,288.4,436.3,288.4z"/>
	<path class="st18" d="M413.9,288.4h-30.3V322h30.3C413.9,307.3,413.9,295.4,413.9,288.4z"/>
	<path class="st13" d="M376.9,276.7H214.1c-0.8,0-1.5-0.1-2.3-0.3l-34.8-8.5c-6.1-1.5-12,3.1-12,9.4v182.2c0,5.4,4.3,9.7,9.7,9.7
		h202.3c5.4,0,9.7-4.3,9.7-9.7c0-2,0-168.5,0-173.1C386.6,281,382.3,276.7,376.9,276.7z"/>
	<path class="st14" d="M200.1,459.5c0-3,0-178.4,0-182.2c0-1.3,0.3-2.5,0.7-3.6l-23.8-5.8c-6.1-1.5-12,3.1-12,9.4v182.2
		c0,5.4,4.3,9.7,9.7,9.7h35.1C204.4,469.2,200.1,464.9,200.1,459.5z"/>
	<path class="st3" d="M303.1,178.2c3.4,2.4,8.1,1.6,10.4-1.8l16-22.8c2.4-3.4,1.6-8.1-1.8-10.4s-8.1-1.6-10.4,1.8l-16,22.8
		C298.9,171.2,299.7,175.9,303.1,178.2z"/>
	<path class="st3" d="M341.7,160l-5.4,27.3c-0.8,4.1,1.8,8,5.9,8.8c4.1,0.8,8-1.8,8.8-5.9l5.4-27.3c0.8-4.1-1.8-8-5.9-8.8
		S342.5,155.9,341.7,160z"/>
	<path class="st3" d="M309.6,125.4c-2.1-3.5-6.8-4.7-10.3-2.5l-23.8,14.4c-3.5,2.1-4.7,6.8-2.5,10.3c2.1,3.5,6.8,4.7,10.3,2.5
		l23.8-14.4C310.6,133.6,311.7,129,309.6,125.4z"/>
	<path class="st3" d="M83.7,156.2c2.8,1.4,6.1,1.4,9,0c7-3.5,29.8-16.5,29.8-39.5c0-18.2-21.2-27.1-34.3-16.1
		c-13.1-11-34.3-2.1-34.3,16.1C53.8,139.7,76.7,152.7,83.7,156.2z M79.9,113.8c1.4,2.5,4.5,4.6,8,4.7c3.6,0.1,7-2,8.5-4.7
		c3.1-5.3,11.1-3.1,11.1,2.8c0,12.7-13.4,21.6-19.3,24.9c-5.9-3.3-19.3-12.1-19.3-24.9C68.8,110.7,76.9,108.6,79.9,113.8z"/>
	<path class="st3" d="M141.1,107.6h29.6c4.1,0,7.5-3.4,7.5-7.5c0-4.1-3.4-7.5-7.5-7.5h-29.6c-4.1,0-7.5,3.4-7.5,7.5
		C133.6,104.3,137,107.6,141.1,107.6z"/>
	<path class="st3" d="M141.1,134h29.6c4.1,0,7.5-3.4,7.5-7.5s-3.4-7.5-7.5-7.5h-29.6c-4.1,0-7.5,3.4-7.5,7.5
		C133.6,130.7,137,134,141.1,134z"/>
	<path class="st3" d="M141.1,160.4h29.6c4.1,0,7.5-3.4,7.5-7.5s-3.4-7.5-7.5-7.5h-29.6c-4.1,0-7.5,3.4-7.5,7.5
		S137,160.4,141.1,160.4z"/>
	<path class="st3" d="M495.8,19c4.1,0,7.5-3.4,7.5-7.5S499.9,4,495.8,4h-73.7c-0.1,0-0.2,0-0.3,0c-2.5-0.1-5,1-6.5,3.2l-25.9,37
		l-32.8-23C339.1,9,317.5,4.9,296.8,9.6l-2.6-1.8c-9.6-6.7-22.8-4.3-29.5,5.2l-6,8.5c-6.7,9.6-4.4,22.8,5.2,29.5l2,1.4
		c-6.8,30.6,26.8,54.1,53.2,37.2l4.2,2.9c-6.8,30.6,26.8,54.1,53.2,37.2l4.2,2.9c-6.8,30.6,26.8,54.1,53.2,37.2l2.1,1.4
		c9.6,6.7,22.8,4.4,29.5-5.2l6-8.5c6.7-9.6,4.4-22.8-5.2-29.5L463,126c-2.6-21.1-13.9-39.9-31.2-52.1l-30.2-21.1L425.2,19H495.8z
		 M280.3,62.5l24.6,17.2C293.1,82.5,281.7,74.5,280.3,62.5z M337.7,102.6c15.1,10.6,9.5,6.7,24.6,17.2
		C350.5,122.7,339.1,114.7,337.7,102.6z M395.1,142.8c15,10.5,9.7,6.8,24.6,17.2C407.9,162.9,396.5,154.9,395.1,142.8z M459.2,149.2
		l-6,8.5c-2,2.8-5.8,3.5-8.6,1.5c-9.5-6.6-162.5-113.8-172-120.4c-2.8-1.9-3.5-5.8-1.5-8.6l6-8.5c1.9-2.8,5.8-3.5,8.6-1.5l172,120.4
		C460.4,142.5,461.1,146.4,459.2,149.2z M444.3,112.9c-7.9-5.5-125-87.6-128.7-90.1c11.5,0.4,22.7,4,32.3,10.7l75.3,52.7
		C432.8,92.9,440,102.2,444.3,112.9z"/>
	<path class="st3" d="M490.8,314.5h-32.3c1.2-2.9,1.9-6,1.9-9.3c0-13.4-10.9-24.3-24.3-24.3H393c-2.3-6.8-8.7-11.7-16.3-11.7H213.8
		c-0.2,0-0.3,0-0.5-0.1l-34.8-8.5c-6.8-1.7-14.1,0.9-18.2,7l-20.4-5c-10.4-2.5-21,2.1-26.4,10.8h-3.1c7.6-8.9,12.2-20.5,12.2-33.1
		c0-9.3-2.5-18.1-6.9-25.6h91.3c16.3,0,29.6-13.3,29.6-29.6V144c0-4.1-3.4-7.5-7.5-7.5c-4.1,0-7.5,3.4-7.5,7.5v41.1
		c0,8-6.5,14.6-14.6,14.6H102.4c-18.3-14.1-43.9-14.1-62.2,0H29.6c-8,0-14.6-6.5-14.6-14.6V67.9c0-8,6.5-14.6,14.6-14.6h177.3
		c8,0,14.6,6.5,14.6,14.6V109c0,4.1,3.4,7.5,7.5,7.5c4.1,0,7.5-3.4,7.5-7.5V67.9c0-16.3-13.3-29.6-29.6-29.6H29.6
		C13.3,38.3,0,51.6,0,67.9v117.3c0,15.5,12,28.2,27.1,29.5c-4.4,7.6-7,16.4-7,25.7c0,12.6,4.6,24.2,12.2,33.1H21.2
		C9.5,273.5,0,283,0,294.7v13.7c0,5.2,1.9,10,5,13.7c-3.1,3.7-5,8.5-5,13.7v13.7c0,11.3,8.9,20.6,20.1,21.1v6.6
		c0,11.7,9.5,21.2,21.2,21.2H62v95.1c0,7.9,6.4,14.3,14.3,14.3h14.2c7.9,0,14.3-6.4,14.3-14.3v-95.1h52.4v61.3
		c0,9.5,7.7,17.2,17.2,17.2H261c4.1,0,7.5-3.4,7.5-7.5s-3.4-7.5-7.5-7.5h-86.6c-1.2,0-2.2-1-2.2-2.2c0-5.1,0-176.8,0-182.2
		c0,0,0-0.1,0-0.1c0-1.4,1.3-2.4,2.7-2.1l34.8,8.5c1.3,0.3,2.7,0.5,4.1,0.5h162.9c1.2,0,2.2,1,2.2,2.2v173.1c0,1.2-1,2.2-2.2,2.2
		H296c-4.1,0-7.5,3.4-7.5,7.5c0,4.1,3.4,7.5,7.5,7.5h80.7c9.5,0,17.2-7.7,17.2-17.2v-61.3h13.4v95.1c0,7.9,6.4,14.3,14.3,14.3h14.2
		c7.9,0,14.3-6.4,14.3-14.3v-95.1h20.7c11.7,0,21.2-9.5,21.2-21.2v-6.6c11.2-0.5,20.1-9.8,20.1-21.1v-13.7
		C512,324,502.5,314.5,490.8,314.5z M136.3,277.3l20.9,5.1v19.1l-8.9-2.2l-16.4-4c-4.4-1.1-7.2-5.1-7.1-9.4
		C125,280.2,130.5,275.9,136.3,277.3z M71.3,276.6c-19.8,0-36.2-16.1-36.2-36.2c0-18.8,14.4-34.3,32.8-36c21.3-2,39.6,14.8,39.6,36
		C107.5,260.5,91.1,276.6,71.3,276.6z M15,294.7c0-3.4,2.8-6.2,6.2-6.2h32.6c11.3,4.1,23.8,4.1,35.1,0h21c0.9,10.3,8.4,19,18.4,21.4
		l9.4,2.3c-1.1,1.4-2.9,2.3-4.8,2.3H21.2c-3.4,0-6.2-2.8-6.2-6.2V294.7z M15,349.4v-13.7c0-3.4,2.8-6.2,6.2-6.2h136v26
		c-9.4,0-133.5,0-136,0C17.8,355.6,15,352.8,15,349.4z M89.8,492.7H77v-94.4h12.7V492.7z M41.3,383.3c-3.4,0-6.2-2.8-6.2-6.2v-6.6
		h122.1v12.7C152.2,383.3,45.8,383.3,41.3,383.3z M445.4,305.2c0,5.1-4.2,9.3-9.3,9.3h-42.2v-18.6h42.2
		C441.2,295.9,445.4,300.1,445.4,305.2z M435,492.7h-12.7v-94.4H435V492.7z M476.9,377.1c0,3.4-2.8,6.2-6.2,6.2
		c-7.1,0-68.3,0-76.8,0v-12.7h83V377.1z M497,349.4c0,3.4-2.8,6.2-6.2,6.2c-10.6,0-86.3,0-96.9,0v-26h96.9c3.4,0,6.2,2.8,6.2,6.2
		V349.4z"/>
	<path class="st3" d="M34.8,65.6c-4.1,0-7.5,3.4-7.5,7.5V180c0,4.1,3.4,7.5,7.5,7.5h166.9c4.1,0,7.5-3.4,7.5-7.5V73.1
		c0-4.1-3.4-7.5-7.5-7.5H34.8z M194.2,172.5H42.3V80.6h151.9V172.5z"/>
</g>
<g id="Capa_2">
	<linearGradient id="SVGID_1_" gradientUnits="userSpaceOnUse" x1="0" y1="366.9333" x2="512" y2="366.9333">
		<stop  offset="0" style="stop-color:#263C74"/>
		<stop  offset="1" style="stop-color:#233871"/>
	</linearGradient>
	<path class="st19" d="M503.5,256h-10.1c1-2.7,1.5-5.6,1.6-8.5c0-14.1-11.5-25.6-25.6-25.6H42.7c-14.1,0-25.6,11.5-25.6,25.6
		c0,2.9,0.6,5.8,1.6,8.5H8.5c-4.7,0-8.5,3.8-8.5,8.5v34.1c0,4.7,3.8,8.5,8.5,8.5h213.3v34.1h-8.5c-4.7,0-8.5,3.8-8.5,8.5v76.8H93.9
		c-4.7,0-8.5,3.8-8.5,8.5v34.1c0,4.7,3.8,8.5,8.5,8.5h8.5c0,18.9,15.3,34.1,34.1,34.1s34.1-15.3,34.1-34.1h170.7
		c0,18.9,15.3,34.1,34.1,34.1c18.8,0,34.1-15.3,34.1-34.1h8.5c4.7,0,8.5-3.8,8.5-8.5v-34.1c0-4.7-3.8-8.5-8.5-8.5H307.2v-76.8
		c0-4.7-3.8-8.5-8.5-8.5h-8.5v-34.1h213.3c4.7,0,8.5-3.8,8.5-8.5v-34.1C512,259.8,508.2,256,503.5,256z M42.7,238.9h426.7
		c4.7,0,8.5,3.8,8.5,8.5c0,4.7-3.8,8.5-8.5,8.5H42.7c-4.7,0-8.5-3.8-8.5-8.5C34.1,242.8,38,238.9,42.7,238.9z M221.9,358.4h68.3
		v68.3h-68.3V358.4z M238.9,341.3v-34.1h34.1v34.1H238.9z M136.5,494.9c-9.4,0-17.1-7.6-17.1-17.1h34.1
		C153.6,487.3,146,494.9,136.5,494.9z M375.5,494.9c-9.4,0-17.1-7.6-17.1-17.1h34.1C392.5,487.3,384.9,494.9,375.5,494.9z
		 M409.6,443.7v17.1H102.4v-17.1H409.6z M494.9,290.1H17.1v-17.1h477.9V290.1z"/>
	<linearGradient id="SVGID_2_" gradientUnits="userSpaceOnUse" x1="110.9333" y1="68.2667" x2="401.0667" y2="68.2667">
		<stop  offset="0" style="stop-color:#263C74"/>
		<stop  offset="1" style="stop-color:#233871"/>
	</linearGradient>
	<path class="st20" d="M401.1,93.9V59.7c-0.1-1-0.3-2-0.6-2.9c-0.1-0.2-0.1-0.4-0.2-0.6c0-0.1-0.1-0.2-0.1-0.3
		C399,53.6,370.9,0,256,0S113,53.6,111.8,55.9c-0.1,0.1-0.1,0.2-0.1,0.3c-0.1,0.2-0.1,0.4-0.2,0.6c-0.3,1-0.5,1.9-0.6,2.9v34.1
		c0,4.7,3.8,8.5,8.5,8.5h17.1c0,18.8,15.3,34.1,34.1,34.1s34.1-15.3,34.1-34.1h17.1c0,18.8,15.3,34.1,34.1,34.1s34.1-15.3,34.1-34.1
		h17.1c0,18.8,15.3,34.1,34.1,34.1c18.8,0,34.1-15.3,34.1-34.1h17.1C397.2,102.4,401.1,98.6,401.1,93.9z M256,17.1
		c68.7,0,102.9,20.4,118.2,34.1H137.8C153.1,37.4,187.4,17.1,256,17.1z M170.7,119.5c-9.4,0-17.1-7.6-17.1-17.1h34.1
		C187.7,111.8,180.1,119.5,170.7,119.5z M256,119.5c-9.4,0-17.1-7.6-17.1-17.1h34.1C273.1,111.8,265.4,119.5,256,119.5z
		 M341.3,119.5c-9.4,0-17.1-7.6-17.1-17.1h34.1C358.4,111.8,350.8,119.5,341.3,119.5z M384,85.3H128V68.3h256V85.3z"/>
	<linearGradient id="SVGID_3_" gradientUnits="userSpaceOnUse" x1="113.4333" y1="153.6" x2="142.5667" y2="153.6">
		<stop  offset="0" style="stop-color:#263C74"/>
		<stop  offset="1" style="stop-color:#233871"/>
	</linearGradient>
	<path class="st21" d="M113.4,156.1l17.1-17.1l12.1,12.1l-17.1,17.1L113.4,156.1z"/>
	<linearGradient id="SVGID_4_" gradientUnits="userSpaceOnUse" x1="79.3" y1="187.7333" x2="108.4333" y2="187.7333">
		<stop  offset="0" style="stop-color:#263C74"/>
		<stop  offset="1" style="stop-color:#233871"/>
	</linearGradient>
	<path class="st22" d="M79.3,190.2l17.1-17.1l12.1,12.1l-17.1,17.1L79.3,190.2z"/>
	<linearGradient id="SVGID_5_" gradientUnits="userSpaceOnUse" x1="369.4333" y1="153.6" x2="398.5667" y2="153.6">
		<stop  offset="0" style="stop-color:#263C74"/>
		<stop  offset="1" style="stop-color:#233871"/>
	</linearGradient>
	<path class="st23" d="M369.4,151.1l12.1-12.1l17.1,17.1l-12.1,12.1L369.4,151.1z"/>
	<linearGradient id="SVGID_6_" gradientUnits="userSpaceOnUse" x1="403.5667" y1="187.7333" x2="432.7" y2="187.7333">
		<stop  offset="0" style="stop-color:#263C74"/>
		<stop  offset="1" style="stop-color:#233871"/>
	</linearGradient>
	<path class="st24" d="M403.6,185.2l12.1-12.1l17.1,17.1l-12.1,12.1L403.6,185.2z"/>
	<linearGradient id="SVGID_7_" gradientUnits="userSpaceOnUse" x1="247.4667" y1="162.1333" x2="264.5333" y2="162.1333">
		<stop  offset="0" style="stop-color:#263C74"/>
		<stop  offset="1" style="stop-color:#233871"/>
	</linearGradient>
	<path class="st25" d="M247.5,153.6h17.1v17.1h-17.1V153.6z"/>
	<linearGradient id="SVGID_8_" gradientUnits="userSpaceOnUse" x1="247.4667" y1="196.2667" x2="264.5333" y2="196.2667">
		<stop  offset="0" style="stop-color:#263C74"/>
		<stop  offset="1" style="stop-color:#233871"/>
	</linearGradient>
	<path class="st26" d="M247.5,187.7h17.1v17.1h-17.1V187.7z"/>
	<linearGradient id="SVGID_9_" gradientUnits="userSpaceOnUse" x1="180.1" y1="162.1333" x2="203.9" y2="162.1333">
		<stop  offset="0" style="stop-color:#263C74"/>
		<stop  offset="1" style="stop-color:#233871"/>
	</linearGradient>
	<path class="st27" d="M180.1,166.9l8.5-17.1l15.3,7.6l-8.5,17.1L180.1,166.9z"/>
	<linearGradient id="SVGID_10_" gradientUnits="userSpaceOnUse" x1="163.0333" y1="196.2667" x2="186.8333" y2="196.2667">
		<stop  offset="0" style="stop-color:#263C74"/>
		<stop  offset="1" style="stop-color:#233871"/>
	</linearGradient>
	<path class="st28" d="M163,201l8.5-17.1l15.3,7.6l-8.5,17.1L163,201z"/>
	<linearGradient id="SVGID_11_" gradientUnits="userSpaceOnUse" x1="308.1" y1="162.1333" x2="331.9" y2="162.1333">
		<stop  offset="0" style="stop-color:#263C74"/>
		<stop  offset="1" style="stop-color:#233871"/>
	</linearGradient>
	<path class="st29" d="M308.1,157.4l15.3-7.6l8.5,17.1l-15.3,7.6L308.1,157.4z"/>
	<linearGradient id="SVGID_12_" gradientUnits="userSpaceOnUse" x1="325.1667" y1="196.2667" x2="348.9667" y2="196.2667">
		<stop  offset="0" style="stop-color:#263C74"/>
		<stop  offset="1" style="stop-color:#233871"/>
	</linearGradient>
	<path class="st30" d="M325.2,191.6l15.3-7.6L349,201l-15.3,7.6L325.2,191.6z"/>
	
		<linearGradient id="SVGID_13_" gradientUnits="userSpaceOnUse" x1="538" y1="320.2" x2="734" y2="516.2" gradientTransform="matrix(1 0 0 -1 0 514)">
		<stop  offset="0" style="stop-color:#263C74"/>
		<stop  offset="1" style="stop-color:#233871"/>
	</linearGradient>
	<rect x="546.5" y="-10.7" class="st31" width="179" height="213"/>
</g>
</svg>
